…
``` r
# importing data with read_csv()
read_csv("./data/nba2017-player-statistics.csv",
                  col_types = list(.default = col_integer(),
                                   Player = col_character(), 
                                   Team = col_character(), 
                                   Experience = col_character(),
                                   Position = col_factor(c("C","PF","PG","SF","SG")),
                                   Salary = col_double()))
```

    ## # A tibble: 441 x 24
    ##               Player  Team Position Experience   Salary  Rank   Age    GP
    ##                <chr> <chr>   <fctr>      <chr>    <dbl> <int> <int> <int>
    ##  1        Al Horford   BOS        C          9 26540100     4    30    68
    ##  2      Amir Johnson   BOS       PF         11 12000000     6    29    80
    ##  3     Avery Bradley   BOS       SG          6  8269663     5    26    55
    ##  4 Demetrius Jackson   BOS       PG          R  1450000    15    22     5
    ##  5      Gerald Green   BOS       SF          9  1410598    11    31    47
    ##  6     Isaiah Thomas   BOS       PG          5  6587132     1    27    76
    ##  7       Jae Crowder   BOS       SF          4  6286408     3    26    72
    ##  8       James Young   BOS       SG          2  1825200    13    21    29
    ##  9      Jaylen Brown   BOS       SF          R  4743000     8    20    78
    ## 10     Jonas Jerebko   BOS       PF          6  5000000    10    29    78
    ## # ... with 431 more rows, and 16 more variables: GS <int>, MIN <int>,
    ## #   FGM <int>, FGA <int>, Points3 <int>, Points3_atts <int>,
    ## #   Points2 <int>, Points2_atts <int>, FTM <int>, FTA <int>, OREB <int>,
    ## #   DREB <int>, AST <int>, STL <int>, BLK <int>, TO <int>
…
